<svg xmlns="http://www.w3.org/2000/svg" width="413.001" height="216.864" viewBox="0 0 413.001 216.864">
  <g id="undraw_my_files_swob" transform="translate(0 0)">
    <path id="Caminho_2534" data-name="Caminho 2534" d="M802.4,427.874c-2.163,13.751-8.866,27.1-19.927,35.544-10.886,8.318-24.833,11.274-38.3,13.815q-24.222,4.576-48.577,8.366-3.452.55-6.91,1.063h-94.57c-.1-.128-.2-.26-.292-.393-.154-.223-.308-.447-.457-.67-.085-.128-.17-.26-.255-.393h59.319a6.357,6.357,0,0,0,6.352-6.346V399.682c.383-1.2.739-2.408,1.063-3.63a95.7,95.7,0,0,0,2.939-17.386c.319-4.093.415-8.186.345-12.284-.2-11.263-1.669-22.526-3.269-33.71-.117-.824-.239-1.653-.356-2.477-1.127-7.771-2.153-16.228,1.765-23.037,4.481-7.792,14.426-11.04,23.382-10.243,16.111,1.44,29.681,13.777,36.734,28.336s8.627,31.105,9.27,47.264a148.608,148.608,0,0,1-.893,26.114q6.059-13.857,12.129-27.714c2.158-4.927,4.428-10.014,8.425-13.618,8.356-7.542,22.175-6.022,31.1.845s13.809,17.732,17.062,28.506C802.507,399.974,804.564,414.124,802.4,427.874Z" transform="translate(-390.272 -269.798)" fill="#f2f2f2"/>
    <path id="Caminho_2535" data-name="Caminho 2535" d="M844.453,401.85a68.508,68.508,0,0,1,8.459,34.055,82.433,82.433,0,0,1-7.618,33.98,85.367,85.367,0,0,1-18.32,25.672,77.78,77.78,0,0,1-26.327,16.818,68.8,68.8,0,0,1-35.725,3.395q-2.5-.43-4.964-1.042c-1-.246-1.421,1.292-.424,1.538a70.576,70.576,0,0,0,37.867-1.089A78.017,78.017,0,0,0,825.139,499.4a86.59,86.59,0,0,0,19.893-25.361,84.776,84.776,0,0,0,9.342-33.945,72.154,72.154,0,0,0-6.516-35.154q-.945-1.982-2.027-3.892a.8.8,0,0,0-1.377.8Z" transform="translate(-467.97 -318.46)" fill="#fff"/>
    <path id="Caminho_2536" data-name="Caminho 2536" d="M737.33,295.566a172.931,172.931,0,0,1,15.041,37.73,182.226,182.226,0,0,1,3.1,80.559,172.276,172.276,0,0,1-12.113,38.794c-5.538,12.3-13.511,25.267-27.131,29.575a28.406,28.406,0,0,1-4.709,1.053c-1.012.139-.581,1.676.424,1.538,14.088-1.934,23.877-13.638,30.017-25.569a163.7,163.7,0,0,0,13.884-39.285,183.657,183.657,0,0,0-.627-81.92,175.628,175.628,0,0,0-14.1-38.694q-1.168-2.311-2.408-4.584c-.49-.9-1.868-.1-1.377.8Z" transform="translate(-445.472 -268.659)" fill="#fff"/>
    <path id="Caminho_2537" data-name="Caminho 2537" d="M544.562,292.259H449.1a7.318,7.318,0,0,0-7.309,7.309V347.4h14.692a6.314,6.314,0,0,1,5.374,2.971l5.092,8.106,4.869,7.744.914,1.456,5.57,8.861.064.1H551.87V299.568a7.318,7.318,0,0,0-7.309-7.309Z" transform="translate(-319.383 -267.671)" fill="#ccc"/>
    <path id="Caminho_2538" data-name="Caminho 2538" d="M518.094,319.769h-47.3a4.728,4.728,0,0,0,0,9.456h47.3a4.728,4.728,0,0,0,0-9.456Z" transform="translate(-330.755 -280.559)" fill="#fff"/>
    <path id="Caminho_2539" data-name="Caminho 2539" d="M544.322,363.449h-73.1a5.161,5.161,0,1,0,0,10.322h73.1a5.161,5.161,0,1,0,0-10.322Z" transform="translate(-330.753 -301.022)" fill="#fff"/>
    <path id="Caminho_2540" data-name="Caminho 2540" d="M553.248,400.4a5.158,5.158,0,0,0-4.667-2.971h-73.1c-.112,0-.218.005-.33.011a6.332,6.332,0,0,1,2.333,2.2l5.092,8.106h66.005a5.155,5.155,0,0,0,4.667-7.346Z" transform="translate(-335.011 -316.94)" fill="#fff"/>
    <path id="Caminho_2541" data-name="Caminho 2541" d="M564.525,435.874a5.161,5.161,0,0,0-5.108-4.465H498.28l.914,1.456,5.57,8.861h54.652a5.1,5.1,0,0,0,2.993-.962,5.154,5.154,0,0,0,2.163-4.2A4.9,4.9,0,0,0,564.525,435.874Z" transform="translate(-345.847 -332.859)" fill="#fff"/>
    <path id="Caminho_2542" data-name="Caminho 2542" d="M623.682,338.729l-7.441-2.908-37.1-14.479L534.752,304.02a7.322,7.322,0,0,0-9.467,4.157l-1.552,3.981-3.694,9.456-5.368,13.761L510.641,345.7l-3.019,7.739-4.029,10.317-3.024,7.744-.085.223L500,372.954l5.57,8.861.064.1H608.81a6.334,6.334,0,0,1,4.938,2.36l.436-1.106,5.326-13.639,8.324-21.33a7.323,7.323,0,0,0-4.151-9.472Z" transform="translate(-346.653 -272.948)" fill="#1ea04c"/>
    <path id="Caminho_2543" data-name="Caminho 2543" d="M611.849,354.061l-3.976-1.552-40.088-15.643a4.73,4.73,0,1,0-3.439,8.813l13.241,5.167,16.377,6.389,13.91,5.432.537.207a4.73,4.73,0,0,0,3.439-8.813Z" transform="translate(-375.386 -288.418)" fill="#fff"/>
    <path id="Caminho_2544" data-name="Caminho 2544" d="M620.233,404.4l-19.964-7.792-14.25-5.56-7.612-2.971-19.826-7.739-6.442-2.514a5.161,5.161,0,0,0-6.5,2.514c-.064.133-.127.271-.181.415a5.158,5.158,0,0,0,2.929,6.681l1.648.643L576.461,398.4l23.807,9.291,16.212,6.331a5.161,5.161,0,1,0,3.753-9.615Z" transform="translate(-367.782 -307.591)" fill="#fff"/>
    <path id="Caminho_2545" data-name="Caminho 2545" d="M594.48,430.824l-1.281-.5-12.528-4.89-11.444-4.465-19.847-7.744-9.6-3.747a5.16,5.16,0,0,0-3.747,9.615l4.805,1.876,23.972,9.355,2.466.962.255.1H595.92Z" transform="translate(-361.992 -322.419)" fill="#fff"/>
    <path id="Caminho_2546" data-name="Caminho 2546" d="M540.2,446.112l-2.466-.962-10.306-4.024a5.153,5.153,0,0,0-6.974,4.024,4.891,4.891,0,0,0-.058.962.588.588,0,0,0,.005.1h20.06Z" transform="translate(-356.206 -337.245)" fill="#fff"/>
    <path id="Caminho_2547" data-name="Caminho 2547" d="M509.418,424.2l-2.466-.962H468.383a4.888,4.888,0,0,0-.058.962h-5.273l.064.1h46.557Zm0,0H463.052l.064.1h46.557Zm0,0H463.052l.064.1h46.557Zm.255.1-.255-.1H463.052l.064.1ZM416.65,530.741a6.356,6.356,0,0,1-6.346-6.346V401.414a6.357,6.357,0,0,1,6.346-6.352h9.892V394H416.65a7.423,7.423,0,0,0-7.41,7.415V524.394a7.415,7.415,0,0,0,4.343,6.74h93.645c-.085-.128-.17-.26-.255-.393ZM571.666,425.556a7.376,7.376,0,0,0-5.374-2.317H463.706l-5.74-9.132-.138-.223-4.869-7.744-5.454-8.675A7.429,7.429,0,0,0,441.233,394H416.65a7.424,7.424,0,0,0-7.41,7.415V524.394a7.415,7.415,0,0,0,4.343,6.74,7.309,7.309,0,0,0,3.067.67H566.292a7.334,7.334,0,0,0,3.072-.67,7.415,7.415,0,0,0,4.343-6.74V430.654a7.373,7.373,0,0,0-2.042-5.1Zm.978,98.838a6.357,6.357,0,0,1-6.352,6.347H416.65a6.356,6.356,0,0,1-6.346-6.346V401.414a6.357,6.357,0,0,1,6.346-6.352h24.583a6.314,6.314,0,0,1,5.374,2.971l5.092,8.106,4.869,7.744.914,1.456,5.57,8.861.064.1H566.292a6.357,6.357,0,0,1,6.352,6.352ZM509.418,424.2H463.052l.064.1h46.557Zm0,0H463.052l.064.1h46.557Zm0,0H463.052l.064.1h46.557Zm0,0-2.466-.962H463.706l-5.74-9.132-.484,1.233,5.57,8.861.064.1h46.557Z" transform="translate(-304.135 -315.333)" fill="#1ea04c"/>
    <path id="Caminho_2548" data-name="Caminho 2548" d="M131.329,277.42l-3.045,6.366-26-8.714,4.493-9.395Z" transform="translate(-47.916 -124.461)" fill="#ffb8b8"/>
    <path id="Caminho_2549" data-name="Caminho 2549" d="M7.913,0H22.176V8.568H0V7.913A7.913,7.913,0,0,1,7.913,0Z" transform="matrix(0.431, -0.902, 0.902, 0.431, 72.677, 170.73)" fill="#2f2e41"/>
    <path id="Caminho_2550" data-name="Caminho 2550" d="M161.982,370.312l-7.052-.238-.3-27.45,8.267.488Z" transform="translate(-72.44 -160.508)" fill="#ffb8b8"/>
    <path id="Caminho_2551" data-name="Caminho 2551" d="M7.913,0H22.176V8.568H0V7.913A7.913,7.913,0,0,1,7.913,0Z" transform="translate(68.958 207.091) rotate(1.933)" fill="#2f2e41"/>
    <path id="Caminho_2552" data-name="Caminho 2552" d="M349.584,422.982s-21.583-5.468-31.367,2.59L312.749,441.4l-21.871,31.079,31.655,18.993,5.755-14.389-13.813-6.907,16.691-14.389-2.878,75.972,10.935,1.727S363.4,439.673,349.584,422.982Z" transform="translate(-248.686 -328.062)" fill="#2f2e41"/>
    <path id="Caminho_2553" data-name="Caminho 2553" d="M339.721,389.68l.263-.468c2.773-4.93,2.324-12.958,1.459-18.824-.725-4.913-.7-13.572-.557-19.971a9.51,9.51,0,0,1,7.58-9.153,107.871,107.871,0,0,1,18.847-1.707l0,.288,0-.288a4.382,4.382,0,0,1,4.4,4.275c.128,6.891.089,19.457-1.622,26.2-2.538,10.006,1.431,16.806,1.471,16.873l.239.4Z" transform="translate(-271.567 -289.829)" fill="#1ea04c"/>
    <path id="Caminho_2554" data-name="Caminho 2554" d="M312.044,432.5a5.328,5.328,0,0,0,2.025-7.916l12.18-52.525h-9.209l-10.75,51.49a5.357,5.357,0,0,0,5.753,8.951Z" transform="translate(-254.993 -305.057)" fill="#ffb8b8"/>
    <path id="Caminho_2555" data-name="Caminho 2555" d="M426.209,371.556l-20.327-19.228-5.494,7.691,13.735,12.086-18.012,14.3c-.13-.009-.26-.02-.392-.02a5.769,5.769,0,1,0,5.712,6.536l.057.057Z" transform="translate(-295.095 -295.812)" fill="#ffb8b8"/>
    <path id="Caminho_2556" data-name="Caminho 2556" d="M340.016,343.874s-12.694-2.082-13.845,7.7-1.727,9.784-1.727,9.784,9.209-1.727,11.511.576S340.016,343.874,340.016,343.874Z" transform="translate(-264.411 -291.765)" fill="#1ea04c"/>
    <path id="Caminho_2557" data-name="Caminho 2557" d="M389.413,340.924s10.36-1.727,14.964,2.878,6.907,5.755,6.907,5.755-10.36,5.755-6.331,10.935c0,0-10.935-5.18-12.662-3.453S389.413,340.924,389.413,340.924Z" transform="translate(-294.846 -290.321)" fill="#1ea04c"/>
    <path id="Caminho_2558" data-name="Caminho 2558" d="M369.477,263.189a9.468,9.468,0,0,1-2.23-11.374,11.263,11.263,0,0,1,10.361-5.806,13.957,13.957,0,0,1,10.537,5.977c3.4,4.79,4.114,11.448,8.636,15.2,4.084,3.387,9.935,3.29,15.234,3.021a13.183,13.183,0,0,0,5.233-.99,4.5,4.5,0,0,0,2.706-4.244c1.331,2.107.559,5.062-1.227,6.8a11.519,11.519,0,0,1-6.805,2.757,25.284,25.284,0,0,1-22.936-10.063c-1.844-2.544-3.267-5.506-5.8-7.368s-6.749-1.992-8.3.739c-.768,1.351-.693,3.045-1.4,4.429s-3,2.13-3.681.733" transform="translate(-283.996 -246.001)" fill="#2f2e41"/>
    <circle id="Elipse_11" data-name="Elipse 11" cx="15.946" cy="15.946" r="15.946" transform="translate(69.035 13.052)" fill="#2f2e41"/>
    <circle id="Elipse_12" data-name="Elipse 12" cx="13.055" cy="13.055" r="13.055" transform="translate(71.83 20.082)" fill="#ffb8b8"/>
    <path id="Caminho_2559" data-name="Caminho 2559" d="M348.8,283.914c1.774.388,1.194,3.364,2.6,4.519,1.265,1.041,3.086-.03,4.678-.417,2.01-.489,4.113.228,5.968,1.142a24.858,24.858,0,0,0,5.669,2.475c2.024.426,4.424-.054,5.558-1.784,1.085-1.654.686-3.883-.163-5.67a13.166,13.166,0,0,0-23.622-.327" transform="translate(-275.821 -260.365)" fill="#2f2e41"/>
    <path id="Caminho_2560" data-name="Caminho 2560" d="M592.077,652.531a.533.533,0,0,1-.532.532H212.032a.532.532,0,1,1,0-1.063H591.545A.533.533,0,0,1,592.077,652.531Z" transform="translate(-211.5 -436.198)" fill="#1ea04c"/>
  </g>
</svg>
